<?xml version="1.0" encoding="UTF-8" standalone="no"?>
<svg
   xmlns:dc="http://purl.org/dc/elements/1.1/"
   xmlns:cc="http://creativecommons.org/ns#"
   xmlns:rdf="http://www.w3.org/1999/02/22-rdf-syntax-ns#"
   xmlns:svg="http://www.w3.org/2000/svg"
   xmlns="http://www.w3.org/2000/svg"
   xmlns:sodipodi="http://sodipodi.sourceforge.net/DTD/sodipodi-0.dtd"
   xmlns:inkscape="http://www.inkscape.org/namespaces/inkscape"
   inkscape:version="1.0 (4035a4fb49, 2020-05-01)"
   sodipodi:docname="0tubelogo.svg"
   id="svg8"
   version="1.1"
   viewBox="0 0 89.075935 24.694389"
   height="24.694389mm"
   width="89.075935mm">
  <defs
     id="defs2">
    <rect
       x="109.36111"
       y="114.86439"
       width="142.875"
       height="68.791667"
       id="rect1736" />
  </defs>
  <sodipodi:namedview
     id="base"
     pagecolor="#ffffff"
     bordercolor="#666666"
     borderopacity="1.0"
     inkscape:pageopacity="0.0"
     inkscape:pageshadow="2"
     inkscape:zoom="0.7"
     inkscape:cx="48.735693"
     inkscape:cy="140.22482"
     inkscape:document-units="mm"
     inkscape:current-layer="layer1"
     inkscape:document-rotation="0"
     showgrid="true"
     inkscape:snap-text-baseline="true"
     inkscape:window-width="2560"
     inkscape:window-height="1016"
     inkscape:window-x="0"
     inkscape:window-y="27"
     inkscape:window-maximized="1"
     fit-margin-top="0"
     fit-margin-left="0"
     fit-margin-right="0"
     fit-margin-bottom="0">
    <inkscape:grid
       type="xygrid"
       id="grid845"
       originx="-149.93056"
       originy="-171.09727" />
  </sodipodi:namedview>
  <metadata
     id="metadata5">
    <rdf:RDF>
      <cc:Work
         rdf:about="">
        <dc:format>image/svg+xml</dc:format>
        <dc:type
           rdf:resource="http://purl.org/dc/dcmitype/StillImage" />
        <dc:title></dc:title>
      </cc:Work>
    </rdf:RDF>
  </metadata>
  <g
     inkscape:label="Layer 1"
     inkscape:groupmode="layer"
     id="layer1"
     transform="translate(-132.29167,-137.79499)">
    <g
       style="font-size:35.2777px;line-height:1.25;font-family:'League Mono';-inkscape-font-specification:'League Mono';opacity:1;mix-blend-mode:normal;stroke-width:0.264583"
       id="text1782"
       aria-label="0Tube">
      <path
         id="path847"
         style="fill:#ff0000;fill-opacity:1;stroke-width:0.264583"
         d="m 142.87497,137.79499 h -3.52777 l -7.05554,8.81943 v 7.05554 l 7.05554,8.81942 h 3.52777 l 7.05554,-8.81942 v -7.05554 z m 3.52777,14.99302 -5.29166,6.59693 -5.29165,-6.59693 v -5.29165 l 5.29165,-6.63221 5.29166,6.63221 z" />
      <path
         id="path849"
         style="font-style:normal;font-variant:normal;font-weight:normal;font-stretch:normal;font-family:VG5000;-inkscape-font-specification:VG5000;stroke-width:0.264583"
         d="m 153.45822,137.79499 v 3.52777 h 7.05554 v 21.16662 h 3.52777 v -21.16662 h 7.05554 v -3.52777 z" />
      <path
         id="path851"
         style="font-style:normal;font-variant:normal;font-weight:normal;font-stretch:normal;font-family:VG5000;-inkscape-font-specification:VG5000;stroke-width:0.264583"
         d="m 181.68031,144.85053 v 10.58331 c 0,2.64583 -1.76388,3.52777 -3.52777,3.52777 -1.76388,0 -3.52777,-0.88194 -3.52777,-3.52777 V 144.85053 H 171.097 v 12.3472 c 0,3.52776 2.64583,5.29165 5.29166,5.29165 2.64583,0 5.29165,-1.76389 5.29165,-5.29165 v 5.29165 h 3.52777 v -17.63885 z" />
      <path
         id="path853"
         style="font-style:normal;font-variant:normal;font-weight:normal;font-stretch:normal;font-family:VG5000;-inkscape-font-specification:VG5000;stroke-width:0.264583"
         d="m 194.90938,144.85053 c -1.02305,0 -1.94027,0.14111 -2.64582,0.28222 v -7.33776 h -3.52777 v 24.69439 h 6.17359 c 5.29166,0 8.81943,-3.52777 8.81943,-8.81942 0,-5.29166 -3.52777,-8.81943 -8.81943,-8.81943 z m 0,14.11108 h -2.64582 v -10.19525 c 0.84666,-0.21167 1.83444,-0.38806 2.64582,-0.38806 2.64583,0 5.29166,1.76389 5.29166,5.29166 0,3.52777 -2.64583,5.29165 -5.29166,5.29165 z" />
      <path
         id="path855"
         style="font-style:normal;font-variant:normal;font-weight:normal;font-stretch:normal;font-family:VG5000;-inkscape-font-specification:VG5000;stroke-width:0.264583"
         d="m 221.36759,153.66996 c 0,-5.29166 -3.52777,-8.81943 -7.93748,-8.81943 -4.40971,0 -7.93748,3.52777 -7.93748,8.81943 0,5.29165 3.52777,8.81942 8.81942,8.81942 3.52777,0 5.29166,-1.76389 5.29166,-1.76389 v -3.52776 c 0,0 -1.76389,1.76388 -5.29166,1.76388 -2.39888,0 -4.83304,-1.48166 -5.2211,-4.40971 h 12.27664 z m -7.93748,-5.29166 c 2.15194,0 3.73944,1.16416 4.23333,3.52777 h -8.46665 c 0.49389,-2.36361 2.08138,-3.52777 4.23332,-3.52777 z" />
    </g>
    <text
       xml:space="preserve"
       style="font-size:10.5833px;line-height:1.25;font-family:'Liberation Mono';-inkscape-font-specification:'Liberation Mono';stroke-width:0.264583"
       x="48.380955"
       y="132.29167"
       id="text835"><tspan
         sodipodi:role="line"
         id="tspan833"
         x="48.380955"
         y="132.29167"
         style="stroke-width:0.264583" /></text>
    <text
       xml:space="preserve"
       style="font-size:10.5833px;line-height:1.25;font-family:'League Mono';-inkscape-font-specification:'League Mono';stroke-width:0.264583"
       x="86.934525"
       y="107.34524"
       id="text839"><tspan
         sodipodi:role="line"
         id="tspan837"
         x="86.934525"
         y="107.34524"
         style="stroke-width:0.264583" /></text>
    <text
       xml:space="preserve"
       style="font-size:35.2777px;line-height:1.25;font-family:'League Mono';-inkscape-font-specification:'League Mono';stroke-width:0.264583"
       x="179.91667"
       y="169.33333"
       id="text849"><tspan
         sodipodi:role="line"
         id="tspan847"
         x="179.91667"
         y="169.33333"
         style="stroke-width:0.264583" /></text>
    <text
       xml:space="preserve"
       style="font-size:35.2777px;line-height:1.25;font-family:'League Mono';-inkscape-font-specification:'League Mono';stroke-width:0.264583"
       x="296.33334"
       y="169.33333"
       id="text879"><tspan
         sodipodi:role="line"
         id="tspan877"
         x="296.33334"
         y="169.33333"
         style="stroke-width:0.264583" /></text>
    <text
       xml:space="preserve"
       id="text1734"
       style="line-height:1.25;font-family:'League Mono';font-size:35.27777778px;-inkscape-font-specification:'League Mono';white-space:pre;shape-inside:url(#rect1736);" />
    <g
       style="font-size:35.2777px;line-height:1.25;font-family:'League Mono';-inkscape-font-specification:'League Mono';opacity:0.4;mix-blend-mode:normal;fill:#ff0000;fill-opacity:1;stroke-width:0.264583"
       id="text1089-4-6"
       aria-label="0">
      <path
         id="path858"
         style="fill:#ff0000;fill-opacity:1;stroke-width:0.264583"
         d="m 148.16664,137.79499 h -3.52777 l -7.05554,8.81943 v 7.05554 l 7.05554,8.81942 h 3.52777 l 7.05554,-8.81942 v -7.05554 z m 3.52777,14.99302 -5.29166,6.59693 -5.29165,-6.59693 v -5.29165 l 5.29165,-6.63221 5.29166,6.63221 z" />
    </g>
  </g>
</svg>
